
  _______             ______ _                               _                        _   _
 |__   __|           |  ____| |                   /\        | |                      | | (_)
    | | ___ _ __ __ _| |__  | | _____      __    /  \  _   _| |_ ___  _ __ ___   __ _| |_ _  ___  _ __
    | |/ _ \ '__/ _` |  __| | |/ _ \ \ /\ / /   / /\ \| | | | __/ _ \| '_ ` _ \ / _` | __| |/ _ \| '_ \
    | |  __/ | | (_| | |    | | (_) \ V  V /   / ____ \ |_| | || (_) | | | | | | (_| | |_| | (_) | | | |
    |_|\___|_|  \__,_|_|    |_|\___/ \_/\_/   /_/    \_\__,_|\__\___/|_| |_| |_|\__,_|\__|_|\___/|_| |_|


